{
    "chipsName": "TIC6000",
    "chipsBatch": "T027MR",
    "powerSupplies": [
        {
            "number": 0,
            "schedule": [
                {
                    "duration": "20000",
                    "enable": true,
                    "voltage": 5.1,
                    "voltageTolerancePlus": 0.45,
                    "voltageToleranceMinus": 0.45,
                    "current": 10,
                    "currentTolerancePlus": 1,
                    "currentToleranceMinus": 4,
                    "pollInterval": 1000
                },
                {
                    "duration": "0",
                    "enable": false
                }
            ]
        }
    ],
    "generator": [
    ],

    "dio": [
        {
            "startTime": "2020-04-01 06:00:00",
            "duration": 10000
        }
    ],

    "thermocouple": [
        {
            "startTime": "2020-04-01 06:00:00",
            "duration": "10000",
            "temperatureMin": 65.4,
            "temperatureMax": 126.4,
            "pollInterval": 2
         }
    ]
}