{
    "chipsName": "IBM80486",
    "chipsBatch": "T053MR18",
    "powerSupplies": [
        {
            "number": 0,
            "schedule": [
                {
                    "duration": "120000",
                    "enable": true,
                    "voltage": 5.1,
                    "voltageTolerancePlus": 0.45,
                    "voltageToleranceMinus": 0.45,
                    "current": 0.5,
                    "currentTolerancePlus": 0.01,
                    "currentToleranceMinus": 0.04,
                    "pollInterval": 1000
                },
                {
                    "duration": "10000",
                    "enable": false
                },
                {
                    "duration": "50000",
                    "enable": true,
                    "voltage": 2.1,
                    "voltageTolerancePlus": 0.45,
                    "voltageToleranceMinus": 0.45,
                    "current": 0.3,
                    "currentTolerancePlus": 0.02,
                    "currentToleranceMinus": 0.05,
                    "pollInterval": 500
                },
                {
                    "duration": "0",
                    "enable": false
                }
            ]
        },
        {
            "number": 3,
            "schedule": [
                {
                    "duration": "10000",
                    "enable": false
                },
                {
                    "duration": "130000",
                    "enable": true,
                    "voltage": 3.1,
                    "voltageTolerancePlus": 0.43,
                    "voltageToleranceMinus": 0.43,
                    "current": 0.39,
                    "currentTolerancePlus": 0.23,
                    "currentToleranceMinus": 0.14,
                    "pollInterval": 1500
                },
                {
                    "duration": "50000",
                    "enable": true,
                    "voltage": 3.8,
                    "voltageTolerancePlus": 1.45,
                    "voltageToleranceMinus": 1.55,
                    "current": 0.14,
                    "currentTolerancePlus": 0.06,
                    "currentToleranceMinus": 0.06,
                    "pollInterval": 2000
                },
                {
                    "duration": "0",
                    "enable": false
                }
            ]
        }
    ],
    "generator": [
        {
            "duration": "10000",
            "enable": true,
            "type": "triangle",
            "amplitude": 5.2,
            "frequency": 44100,
            "dutycycle": 4.22,
            "pollInterval": 1000
        },
        {
            "duration": "12000",
            "enable": false
        },
        {
            "duration": "13000",
            "enable": true,
            "type": "square",
            "amplitude": 3.1,
            "frequency": 42000,
            "dutycycle": 4.22,
            "pollInterval": 4000
        },
        {
            "duration": 0,
            "enable": false
        }
    ],
    "thermocouple": [
        {
            "duration": "180000",
            "enable": true,
            "temperatureMax": 126.77,
            "pollInterval": 1000
        },
        {
            "duration": 0,
            "enable": false
        }
    ],
    "dio": [
        {
            "duration": "30000",
            "voltageLogic": 1.8,
            "pollInterval": 1000,
            "enable": true,
            "pins": [
                {
                    "number": 1,
                    "mode": "read",
                    "value": true
                },
                {
                    "number": 4,
                    "mode": "write",
                    "value": false
                },
                {
                    "number": 7,
                    "mode": "none",
                    "value": true
                }
            ]
        },
        {
            "duration": 0,
            "enable": false
        }
    ],
    "smu": [
        {
            "duration": "30000",
            "enable": true,
            "useVoltage": true,
            "voltage": 5.1,            
            "voltageTolerancePlus": 0.45,
            "voltageToleranceMinus": 0.45,
            "current": 0.5,
            "currentTolerancePlus": 1.01,
            "pinNumber": 3,
            "pollInterval": 1000
        },
        {
            "duration": 0,
            "enable": false
        }
    ]
}