{
    "chipsName": "IBM80486",
    "chipsBatch": "T053MR18",
    "powerSupplies": [
        {
            "number": 0,
            "schedule": [
                {
                    "duration": "120000",
                    "enable": true,
                    "voltage": 5.1,
                    "voltageTolerancePlus": 0.45,
                    "voltageToleranceMinus": 0.45,
                    "current": 10,
                    "currentTolerancePlus": 1,
                    "currentToleranceMinus": 4,
                    "pollInterval": 1000
                },
                {
                    "duration": "10000",
                    "enable": false
                },
                {
                    "duration": "60000",
                    "enable": true,
                    "voltage": 12.1,
                    "voltageTolerancePlus": 0.45,
                    "voltageToleranceMinus": 0.45,
                    "current": 15,
                    "currentTolerancePlus": 2,
                    "currentToleranceMinus": 5,
                    "pollInterval": 500
                },
                {
                    "duration": "0",
                    "enable": false
                }
            ]
        },
        {
            "number": 3,
            "schedule": [
                {
                    "duration": "130000",
                    "enable": true,
                    "voltage": 3.1,
                    "voltageTolerancePlus": 0.43,
                    "voltageToleranceMinus": 0.43,
                    "current": 12,
                    "currentTolerancePlus": 0.3,
                    "currentToleranceMinus": 0.34,
                    "pollInterval": 1500
                },
                {
                    "duration": "50000",
                    "enable": true,
                    "voltage": 13.1,
                    "voltageTolerancePlus": 1.45,
                    "voltageToleranceMinus": 1.55,
                    "current": 14,
                    "currentTolerancePlus": 1.6,
                    "currentToleranceMinus": 4.6,
                    "pollInterval": 2000
                },
                {
                    "duration": "0",
                    "enable": false
                }
            ]
        }
    ],
    "generator": [
        {
            "duration": "10000",
            "enable": true,
            "type": "triangle",
            "amplitude": 50,
            "frequency": 44100,
            "dutycycle": 4.22,
            "currentLimit": 500,
            "pollInterval": 1000
        },
        {
            "duration": "12000",
            "enable": false
        },
        {
            "duration": "13000",
            "enable": true,
            "type": "square",
            "amplitude": 50,
            "frequency": 42000,
            "currentLimit": 200,
            "pollInterval": 4000
        },
        {
            "duration": 0,
            "enable": false
        }
    ],

    "dio": [
        {
            "startTime": "2020-04-01 06:00:00",
            "duration": 10000
        }
    ],

    "thermocouple": [
        {
            "startTime": "2020-04-01 06:00:00",
            "duration": "10000",
            "temperatureMax": 126.4,
            "pollInterval": 2,
            "averagingRate": 10
        }
    ],

    "plc": [
        {
            "temperature": {
                "value": 86,
                "pollInterval": 1000
            },
            "temperatureLimit1": 89,
            "temperatureLimit2": 89,
            "temperatureLimit3": 89,
            "temperatureLimit4": 89
        }
    ]
}